[gd_scene load_steps=5 format=2]

[ext_resource path="res://blocks/BlockConsumer.gd" type="Script" id=1]

[sub_resource type="CubeMesh" id=1]
size = Vector3( 1, 1, 1 )

[sub_resource type="CubeMesh" id=2]
size = Vector3( 1, 1, 1 )

[sub_resource type="SpatialMaterial" id=3]
flags_transparent = true
albedo_color = Color( 1, 0.231373, 0.231373, 0.462745 )

[node name="Consumer" type="MeshInstance"]
mesh = SubResource( 1 )
material/0 = null
script = ExtResource( 1 )
prefab_path = "res://blocks/BlockConsumer.tscn"

[node name="MeshInstance" type="MeshInstance" parent="."]
transform = Transform( 1, 0, 0, 0, 1, 0, 0, 0, 1, 0, 1, 0 )
mesh = SubResource( 2 )
material/0 = SubResource( 3 )
