[gd_scene load_steps=5 format=2]

[ext_resource path="res://blocks/BlockUnpackager.gd" type="Script" id=1]

[sub_resource type="CubeMesh" id=1]
size = Vector3( 1.1, 1, 1.1 )

[sub_resource type="SpatialMaterial" id=2]
albedo_color = Color( 0.494118, 0.494118, 0.494118, 1 )

[sub_resource type="PrismMesh" id=3]
material = SubResource( 2 )
size = Vector3( 0.2, 0.2, 0.1 )

[node name="BlockUnpackager" type="MeshInstance"]
mesh = SubResource( 1 )
material/0 = null
script = ExtResource( 1 )
prefab_path = "res://blocks/BlockUnpackager.tscn"

[node name="MeshInstance3" type="MeshInstance" parent="."]
transform = Transform( -1, -3.25841e-07, 5.30863e-14, 0, -1.62921e-07, -1, 3.25841e-07, -1, 1.62921e-07, 0, 0.5, -0.5 )
mesh = SubResource( 3 )
material/0 = null
