[gd_resource type="VisualShader" load_steps=5 format=2]

[sub_resource type="VisualShaderNodeInput" id=1]
output_port_for_preview = 0
input_name = "uv"

[sub_resource type="VisualShaderNodeTextureUniform" id=2]
output_port_for_preview = 0
uniform_name = "TextureUniform"
texture_type = 1

[sub_resource type="VisualShaderNodeVectorOp" id=3]
operator = 2

[sub_resource type="VisualShaderNodeScalarOp" id=4]
default_input_values = [ 0, 1.0, 1, 16.0 ]
operator = 3

[resource]
code = "shader_type spatial;
render_mode specular_schlick_ggx;

uniform sampler2D TextureUniform : hint_albedo;



void vertex() {
// Output:0

}

void fragment() {
// Input:2
	vec3 n_out2p0 = vec3(UV, 0.0);

// ScalarOp:5
	float n_in5p0 = 1.00000;
	float n_in5p1 = 16.00000;
	float n_out5p0 = n_in5p0 / n_in5p1;

// VectorOp:4
	vec3 n_out4p0 = n_out2p0 * vec3(n_out5p0);

// TextureUniform:3
	vec3 n_out3p0;
	float n_out3p1;
	{
		vec4 n_tex_read = texture(TextureUniform, n_out4p0.xy);
		n_out3p0 = n_tex_read.rgb;
		n_out3p1 = n_tex_read.a;
	}

// Output:0
	ALBEDO = n_out3p0;

}

void light() {
// Output:0

}
"
nodes/fragment/0/position = Vector2( 880, 160 )
nodes/fragment/2/node = SubResource( 1 )
nodes/fragment/2/position = Vector2( -20, 40 )
nodes/fragment/3/node = SubResource( 2 )
nodes/fragment/3/position = Vector2( 500, 80 )
nodes/fragment/4/node = SubResource( 3 )
nodes/fragment/4/position = Vector2( 260, 160 )
nodes/fragment/5/node = SubResource( 4 )
nodes/fragment/5/position = Vector2( 20, 280 )
nodes/fragment/connections = PoolIntArray( 3, 0, 0, 0, 2, 0, 4, 0, 4, 0, 3, 0, 5, 0, 4, 1 )
